{
  "version": 1.2,
  "people": [
    {
      "pose_keypoints_2d": [
        1313.27,
        377.178,
        0.854182,
        1307.38,
        439.023,
        0.921995,
        1263.16,
        442.057,
        0.852596,
        1254.36,
        521.485,
        0.847971,
        1245.55,
        577.342,
        0.871969,
        1354.33,
        436.143,
        0.934371,
        1372.03,
        512.589,
        0.828736,
        1378.08,
        574.527,
        0.872533,
        1310.21,
        577.297,
        0.842872,
        1283.69,
        577.399,
        0.84292,
        1324.84,
        695.032,
        0.838195,
        1324.88,
        806.843,
        0.788302,
        1339.63,
        574.491,
        0.800712,
        1351.56,
        695.231,
        0.853552,
        1324.92,
        786.234,
        0.639551,
        1304.45,
        365.565,
        0.966812,
        1327.77,
        365.555,
        0.923836,
        1283.83,
        383.152,
        0.865577,
        1330.97,
        385.946,
        0.291507,
        1345.5,
        815.765,
        0.25376,
        1351.42,
        806.93,
        0.280271,
        1307.37,
        789.321,
        0.282402,
        1351.48,
        827.522,
        0.791923,
        1330.88,
        827.585,
        0.751312,
        1313.23,
        812.814,
        0.65809
      ],
      "face_keypoints_2d": [],
      "hand_left_keypoints_2d": [],
      "hand_right_keypoints_2d": [],
      "pose_keypoints_3d": [],
      "face_keypoints_3d": [],
      "hand_left_keypoints_3d": [],
      "hand_right_keypoints_3d": []
    },
    {
      "pose_keypoints_2d": [
        886.373,
        427.223,
        0.894491,
        886.493,
        480.222,
        0.925949,
        853.946,
        480.269,
        0.91136,
        836.401,
        547.87,
        0.88719,
        824.612,
        598.08,
        0.856145,
        930.512,
        480.165,
        0.93412,
        954.176,
        536.123,
        0.862236,
        974.763,
        592.135,
        0.833375,
        883.539,
        603.895,
        0.85942,
        859.89,
        603.932,
        0.858305,
        859.927,
        703.95,
        0.875397,
        880.471,
        806.853,
        0.885956,
        909.905,
        603.918,
        0.83101,
        883.565,
        695.106,
        0.927489,
        906.992,
        768.7,
        0.787342,
        880.506,
        412.676,
        0.956388,
        901.136,
        412.665,
        0.935816,
        862.893,
        427.23,
        0.694375,
        909.986,
        427.207,
        0.740129,
        904.05,
        801.075,
        0.542222,
        912.866,
        792.251,
        0.582841,
        906.999,
        771.674,
        0.562974,
        883.42,
        824.613,
        0.838755,
        868.775,
        821.691,
        0.768335,
        883.511,
        809.909,
        0.775113
      ],
      "face_keypoints_2d": [],
      "hand_left_keypoints_2d": [],
      "hand_right_keypoints_2d": [],
      "pose_keypoints_3d": [],
      "face_keypoints_3d": [],
      "hand_left_keypoints_3d": [],
      "hand_right_keypoints_3d": []
    },
    {
      "pose_keypoints_2d": [
        1098.43,
        409.735,
        0.937585,
        1095.31,
        462.621,
        0.945555,
        1060.05,
        462.619,
        0.866484,
        1045.34,
        527.394,
        0.955465,
        1039.48,
        577.381,
        0.879671,
        1133.69,
        462.599,
        0.879733,
        1139.52,
        527.336,
        0.864264,
        1139.46,
        577.362,
        0.835682,
        1095.25,
        577.398,
        0.906826,
        1071.83,
        577.397,
        0.900082,
        1074.84,
        671.424,
        0.92951,
        1068.94,
        759.858,
        0.93337,
        1116,
        577.44,
        0.899473,
        1115.83,
        671.473,
        0.9098,
        1110.08,
        762.661,
        0.843344,
        1092.58,
        406.589,
        0.945516,
        1112.96,
        406.694,
        0.892376,
        1074.77,
        409.741,
        0.933541,
        1116.11,
        412.631,
        0.449817,
        1115.84,
        783.354,
        0.69519,
        1119.04,
        777.5,
        0.713534,
        1098.44,
        765.761,
        0.728123,
        1092.32,
        777.53,
        0.833071,
        1071.89,
        777.578,
        0.792746,
        1068.8,
        765.638,
        0.819956
      ],
      "face_keypoints_2d": [],
      "hand_left_keypoints_2d": [],
      "hand_right_keypoints_2d": [],
      "pose_keypoints_3d": [],
      "face_keypoints_3d": [],
      "hand_left_keypoints_3d": [],
      "hand_right_keypoints_3d": []
    },
    {
      "pose_keypoints_2d": [
        453.672,
        389.143,
        0.905649,
        456.544,
        453.815,
        0.911558,
        409.596,
        456.67,
        0.92675,
        377.184,
        524.302,
        0.781975,
        403.762,
        568.501,
        0.383661,
        500.79,
        450.79,
        0.84678,
        518.527,
        527.412,
        0.877903,
        518.495,
        600.794,
        0.875481,
        444.894,
        597.96,
        0.821534,
        415.485,
        597.87,
        0.827972,
        412.522,
        718.536,
        0.896842,
        427.315,
        833.546,
        0.847764,
        474.356,
        598.042,
        0.808381,
        450.819,
        715.567,
        0.845178,
        483.063,
        830.411,
        0.777396,
        436.27,
        385.972,
        0.93387,
        459.711,
        385.986,
        0.955458,
        430.177,
        391.966,
        0.765413,
        480.228,
        392.012,
        0.890384,
        468.467,
        860.027,
        0.664965,
        486.155,
        857.082,
        0.696878,
        483.166,
        836.4,
        0.572895,
        433.01,
        862.845,
        0.77505,
        412.491,
        859.931,
        0.790745,
        433.244,
        842.275,
        0.702455
      ],
      "face_keypoints_2d": [],
      "hand_left_keypoints_2d": [],
      "hand_right_keypoints_2d": [],
      "pose_keypoints_3d": [],
      "face_keypoints_3d": [],
      "hand_left_keypoints_3d": [],
      "hand_right_keypoints_3d": []
    },
    {
      "pose_keypoints_2d": [
        721.678,
        412.443,
        0.94323,
        733.314,
        462.566,
        0.885274,
        692.154,
        462.576,
        0.940053,
        674.451,
        527.373,
        0.910477,
        671.527,
        577.465,
        0.901483,
        768.743,
        462.599,
        0.878161,
        786.444,
        527.435,
        0.897705,
        774.553,
        577.454,
        0.808035,
        724.569,
        589.107,
        0.792838,
        700.976,
        586.196,
        0.781736,
        712.73,
        668.522,
        0.906058,
        695.093,
        759.853,
        0.847915,
        748.147,
        592.043,
        0.78976,
        739.37,
        671.489,
        0.921121,
        736.291,
        756.911,
        0.785874,
        715.8,
        409.46,
        0.949668,
        736.273,
        406.609,
        0.904176,
        709.74,
        412.691,
        0.760383,
        745.186,
        412.418,
        0.878404,
        736.323,
        786.235,
        0.606513,
        742.295,
        780.476,
        0.645844,
        724.6,
        765.672,
        0.589323,
        715.615,
        786.435,
        0.790097,
        695.187,
        786.353,
        0.745699,
        692.254,
        765.705,
        0.718132
      ],
      "face_keypoints_2d": [],
      "hand_left_keypoints_2d": [],
      "hand_right_keypoints_2d": [],
      "pose_keypoints_3d": [],
      "face_keypoints_3d": [],
      "hand_left_keypoints_3d": [],
      "hand_right_keypoints_3d": []
    }
  ]
}
